Откуда;Куда;Lines;CUR;Airlines;airport transfer;airport dest;min;norm;45;100;250;500;1000;HUM100 заказ;HUM200 заказ;handling norm kg;handling DGR kg;handling termo kg;handling hum заказ;handling hum MVL заказ;handling DGR MVL kg;handling export kg;handling export termo kg;marc место;marc DGR место;marc VAR место;Tax 999 заказ;Tax >1000 заказ;Tax >2000 заказ;Tax export заказ;tax DGR заказ;Tax RD заказ;Tax BIG1 место;Tax BIG1 MVL место;Tax BIG2 место;Tax BIG2 MVL место;Export expedition 50 заказ;Export expedition >50 заказ;Import expedition 50 заказ;Import expedition >50 заказ;VAR DIM;VAR LIVE;VAR FISH;VAR FLOWERS;VAR FRESH;VAR DGRS;VAR PHARMA;VAR BIG;VAR BIG+DGR;VAR SAFE;VAR EXPRSS;VAR HUM;VAR HUM kids;AWB заказ;AWB MVL заказ;Packing soft кубометр;Packing hard кубометр;Plomba место
Красноярск;Санкт-Петербург;VVL;RUB;SU;;СПТ;25;1150;46;46;46;46;46;;;5,5;8,25;9,1;100;200;10,45;6,9;13,5;9,5;92;43;700;1500;3500;4500;4300;185;245;300;550;650;825;1650;1500;;;*2;+1;+1;+1;;+1;;;*2;*2;*2;*2;700;1500;500;1300;50
Красноярск;Норильск;VVL;RUB;Y7;;НРС;25;3225;129;129;124;119;119;12900;25800;5,5;8,25;9,1;100;200;10,45;6,9;13,5;9,5;92;43;700;1500;3500;4500;4300;185;245;300;550;650;825;1650;1500;;;*1,5;*1,75;*1,25;;*2;*1,25;+5;*2,5;;;;;700;1500;500;1300;50
Красноярск;Москва;VVL;RUB;Y7;;ДМД;25;725;29;29;29;29;29;2900;5800;5,5;8,25;9,1;100;200;10,45;6,9;13,5;9,5;92;43;700;1500;3500;4500;4300;185;245;300;550;650;825;1650;1500;;;*1,5;*1,75;*1,25;;*2;*1,25;+5;*2,5;;;;;700;1500;500;1300;50
Красноярск;Хабаровск;VVL;RUB;SU;;ХБР;25;1250;50;50;50;50;50;;;5,5;8,25;9,1;100;200;10,45;6,9;13,5;9,5;92;43;700;1500;3500;4500;4300;185;245;300;550;650;825;1650;1500;;;*2;+1;+1;+1;;+1;;;*2;*2;*2;*2;700;1500;500;1300;50
Красноярск;Владивосток;VVL;RUB;SU;;ВВО;25;1575;63;63;63;63;63;;;5,5;8,25;9,1;100;200;10,45;6,9;13,5;9,5;92;43;700;1500;3500;4500;4300;185;245;300;550;650;825;1650;1500;;;*2;+1;+1;+1;;+1;;;*2;*2;*2;*2;700;1500;500;1300;50
Красноярск;Дрезден;MVL;RUB;UT;ВНК;ДРЗ;15;1245;83;83;83;83;83;8300;16600;5,5;8,25;9,1;100;200;10,45;6,9;13,5;9,5;92;43;700;1500;3500;4500;4300;185;245;300;550;650;825;1650;1500;;;*1,5;*1,5;*1,5;*1,5;*2;*1,5;*1,5;*2,5;;;*2;*2;700;1500;500;1300;50
Красноярск;Бангкок;MVL;RUB;S7;;БКК;25;2075;83;83;83;83;83;16600;33200;5,5;8,25;9,1;100;200;10,45;6,9;13,5;9,5;92;43;700;1500;3500;4500;4300;185;245;300;550;650;825;1650;1500;;;*2;;*2;;*2;;*1,5;;;;;;700;1500;500;1300;50
;;;;;;;;;;;;;;;;5,5;8,25;9,1;100;200;10,45;6,9;13,5;9,5;92;43;700;1500;3500;4500;4300;185;245;300;550;650;825;1650;1500;;;;;;;;;;;;;;;700;1500;500;1300;50
